[
  {
    "title": "pop store",
    "meta_title": "pop store",
    "slug": "pop-store",
    "image": "catalog/product/m/b/mb01-blue-0.jpg",
    "employee_qty": "5",
    "average_salary": "35000",
    "city": "taganrog",
    "lat": "59.9",
    "lng": "74.023"
  },
  {
    "title": "lollipops store",
    "meta_title": "lollipops",
    "slug": "lollipops-store",
    "image": "catalog/product/m/b/mb01-blue-0.jpg",
    "employee_qty": "7",
    "average_salary": "38000",
    "city": "taganrog",
    "lat": "57.23",
    "lng": "70.3"
  },
  {
    "title": "rapira store",
    "meta_title": "rapira",
    "slug": "rapira_store",
    "image": "catalog/product/m/b/mb01-blue-0.jpg",
    "employee_qty": "12",
    "average_salary": "29000",
    "city": "rostov on don",
    "lat": "62.23",
    "lng": "65.32"
  }
]